\relax 
\@writefile{toc}{\contentsline {section}{\numberline {1}Lists}{1}}
\@writefile{toc}{\contentsline {section}{\numberline {2}Equations}{1}}
\@writefile{toc}{\contentsline {subsection}{\numberline {2.1}Binomial Theorem}{1}}
\@writefile{toc}{\contentsline {subsection}{\numberline {2.2}Taylor Series}{2}}
\@writefile{toc}{\contentsline {subsection}{\numberline {2.3}Sets}{2}}
\@writefile{toc}{\contentsline {section}{\numberline {3}Tables}{2}}
\newlabel{test}{{3}{2}}
\@writefile{toc}{\contentsline {section}{\numberline {4}A Picture}{2}}
